SRS7854240
SRS7854207
SRS7854216
SRS7854224
SRS7854225
SRS7854226
SRS7854220
SRS7854203
SRS7854204
SRS7854231
SRS7854232
SRS7854233
SRS7854237
SRS7854238
SRS7854239
SRS7854206
SRS7854208
SRS7854209
SRS7854244
SRS7854245
SRS7854246
SRS7854213
SRS7854214
SRS7854215
SRS7953990
SRS7953991
SRS7953992
SRS7953980
SRS7953981
SRS7953982
SRS7953996
SRS7953975
SRS7953976
SRS7953987
SRS7953988
SRS7953989